Stroke Mortality - ANOVA
…
Assumptions

In the QQ plot, the residuals look fairly normal. However, the p-value in the Shapiro-Wilk test of normality for the residuals of the model (p=6.47e-12) is significant so normality cant be assumed. In the Residuals vs Fitted plot, there is no relationship between residuals and fitted values so we can assume the homogeneity of variances. The p-value in the Levene Test is significant (p=3.5e-07), which means we can not assume the homogeneity of variances between Ethnicity and Region. There are three potential outliers in the top right hand corner of the QQ plot.

Pairwise Comparisons

# Pairwise comparisons
PWC <- Stroke_Analysis %>%
  group_by(Region) %>%
  emmeans_test(MR ~ Ethnicity, p.adjust.method = "bonferroni") #rstatix function

PWC

## # A tibble: 24 x 10
##    Region term  .y.   group1 group2    df statistic        p    p.adj
##  * <chr>  <chr> <chr> <chr>  <chr>  <dbl>     <dbl>    <dbl>    <dbl>
##  1 Midwe~ Ethn~ MR    Asian~ Black    476   -10.4   6.78e-23 4.07e-22
##  2 Midwe~ Ethn~ MR    Asian~ Hispa~   476     3.79  1.73e- 4 1.04e- 3
##  3 Midwe~ Ethn~ MR    Asian~ White    476    -0.678 4.98e- 1 1.00e+ 0
##  4 Midwe~ Ethn~ MR    Black  Hispa~   476    14.5   9.26e-40 5.55e-39
##  5 Midwe~ Ethn~ MR    Black  White    476    10.5   1.64e-23 9.84e-23
##  6 Midwe~ Ethn~ MR    Hispa~ White    476    -4.78  2.30e- 6 1.38e- 5
##  7 North~ Ethn~ MR    Asian~ Black    476    -6.57  1.29e-10 7.74e-10
##  8 North~ Ethn~ MR    Asian~ Hispa~   476    -0.683 4.95e- 1 1.00e+ 0
##  9 North~ Ethn~ MR    Asian~ White    476    -2.94  3.40e- 3 2.04e- 2
## 10 North~ Ethn~ MR    Black  Hispa~   476     6.20  1.24e- 9 7.46e- 9
## # ... with 14 more rows, and 1 more variable: p.adj.signif <chr>
…
